…
Be sure to explain your reasoning for this task. Show us the “before”
and “after”.

<!--------------------------- Start your work below --------------------------->

``` r
# untidy data
vancouver_subset_untidy <- vancouver_subset %>% 
                pivot_wider(names_from = assigned,
                            values_from = civic_number)
print(vancouver_subset_untidy)
```

    ## # A tibble: 146,611 × 8
    ##    tree_id std_street    genus_name species_name cultivar_…¹ commo…²     N     Y
    ##      <dbl> <chr>         <chr>      <chr>        <chr>       <chr>   <dbl> <dbl>
    ##  1  149556 W 58TH AV     ULMUS      AMERICANA    BRANDON     BRANDO…   494    NA
    ##  2  149563 W 58TH AV     ZELKOVA    SERRATA      <NA>        JAPANE…   450    NA
    ##  3  149579 WINDSOR ST    STYRAX     JAPONICA     <NA>        JAPANE…  4994    NA
    ##  4  149590 E 39TH AV     FRAXINUS   AMERICANA    AUTUMN APP… AUTUMN…    NA   858
    ##  5  149604 WINDSOR ST    ACER       CAMPESTRE    <NA>        HEDGE …  5032    NA
    ##  6  149616 W 61ST AV     PYRUS      CALLERYANA   CHANTICLEER CHANTI…   585    NA
    ##  7  149617 SHERBROOKE ST ACER       PLATANOIDES  COLUMNARE   COLUMN…  4909    NA
    ##  8  149618 SHERBROOKE ST ACER       PLATANOIDES  COLUMNARE   COLUMN…  4925    NA
    ##  9  149619 SHERBROOKE ST ACER       PLATANOIDES  COLUMNARE   COLUMN…  4969    NA
    ## 10  149625 E 39TH AV     FRAXINUS   AMERICANA    AUTUMN APP… AUTUMN…   720    NA
    ## # … with 146,601 more rows, and abbreviated variable names ¹​cultivar_name,
    ## #   ²​common_name

``` r
# Convert untidy back to tidy
vancouver_subset_tidy <- vancouver_subset_untidy %>% 
                pivot_longer(cols = c(Y, N),
                            names_to = "assigned", 
                            values_to = "civic_number",
                            values_drop_na = TRUE) %>%
                select(tree_id, civic_number, assigned, everything()) 
print(vancouver_subset_tidy)
```

    ## # A tibble: 146,611 × 8
    ##    tree_id civic_number assigned std_street    genus_n…¹ speci…² culti…³ commo…⁴
    ##      <dbl>        <dbl> <chr>    <chr>         <chr>     <chr>   <chr>   <chr>  
    ##  1  149556          494 N        W 58TH AV     ULMUS     AMERIC… BRANDON BRANDO…
    ##  2  149563          450 N        W 58TH AV     ZELKOVA   SERRATA <NA>    JAPANE…
    ##  3  149579         4994 N        WINDSOR ST    STYRAX    JAPONI… <NA>    JAPANE…
    ##  4  149590          858 Y        E 39TH AV     FRAXINUS  AMERIC… AUTUMN… AUTUMN…
    ##  5  149604         5032 N        WINDSOR ST    ACER      CAMPES… <NA>    HEDGE …
    ##  6  149616          585 N        W 61ST AV     PYRUS     CALLER… CHANTI… CHANTI…
    ##  7  149617         4909 N        SHERBROOKE ST ACER      PLATAN… COLUMN… COLUMN…
    ##  8  149618         4925 N        SHERBROOKE ST ACER      PLATAN… COLUMN… COLUMN…
    ##  9  149619         4969 N        SHERBROOKE ST ACER      PLATAN… COLUMN… COLUMN…
    ## 10  149625          720 N        E 39TH AV     FRAXINUS  AMERIC… AUTUMN… AUTUMN…
    ## # … with 146,601 more rows, and abbreviated variable names ¹​genus_name,
    ## #   ²​species_name, ³​cultivar_name, ⁴​common_name
…
